
Mon Dec 16 2019 14:27:01 GMT+0100 (CET) - B200 - Es wurde der Serverlog komplett gelöscht. Jedoch wurde eine Sicherheitskopie als Dokument gespeichert
Tue Dec 17 2019 09:04:42 GMT+0100 (CET) - P200 - Ein Paket wurde in die Paketbox gelegt
Tue Dec 17 2019 09:04:42 GMT+0100 (CET) - P600 - Es wurde ein Paket aus der Liste 'Aktuelle Pakete' gelöscht
Tue Dec 17 2019 09:05:23 GMT+0100 (CET) - F100 - Es wurde ein Paket mit nicht zustellbaren Paketnummer gescannt
Tue Dec 17 2019 09:20:23 GMT+0100 (CET) - F100 - Es wurde ein Paket mit nicht zustellbaren Paketnummer gescannt
Tue Dec 17 2019 09:20:55 GMT+0100 (CET) - P200 - Ein Paket wurde in die Paketbox gelegt
Tue Dec 17 2019 09:20:55 GMT+0100 (CET) - P600 - Es wurde ein Paket aus der Liste 'Aktuelle Pakete' gelöscht
Tue Dec 17 2019 09:28:42 GMT+0100 (CET) - P200 - Ein Paket wurde in die Paketbox gelegt
Tue Dec 17 2019 09:28:42 GMT+0100 (CET) - P600 - Es wurde ein Paket aus der Liste 'Aktuelle Pakete' gelöscht
Tue Dec 17 2019 09:29:36 GMT+0100 (CET) - P100 - Es wurde eine Paket zum Empfangen eingetragen
Tue Dec 17 2019 09:29:36 GMT+0100 (CET) - P100 - Es wurde eine Paket zum Empfangen eingetragen
Tue Dec 17 2019 09:33:00 GMT+0100 (CET) - F300 - 
Tue Jan 07 2020 17:20:48 GMT+0100 (CET) - P100 - Es wurde eine Paket zum Empfangen eingetragen
Tue Jan 07 2020 17:20:48 GMT+0100 (CET) - P100 - Es wurde eine Paket zum Empfangen eingetragen
Tue Jan 07 2020 17:25:43 GMT+0100 (CET) - P100 - Es wurde eine Paket zum Empfangen eingetragen
Tue Jan 07 2020 17:25:43 GMT+0100 (CET) - P100 - Es wurde eine Paket zum Empfangen eingetragen
Tue Jan 07 2020 17:27:13 GMT+0100 (CET) - P100 - Es wurde eine Paket zum Empfangen eingetragen
Tue Jan 07 2020 17:27:13 GMT+0100 (CET) - P100 - Es wurde eine Paket zum Empfangen eingetragen
Tue Jan 07 2020 17:27:25 GMT+0100 (CET) - P100 - Es wurde eine Paket zum Empfangen eingetragen
Tue Jan 07 2020 17:27:25 GMT+0100 (CET) - P100 - Es wurde eine Paket zum Empfangen eingetragen
Tue Jan 07 2020 21:49:30 GMT+0100 (CET) - P100 - Es wurde eine Paket zum Empfangen eingetragen
Tue Jan 07 2020 21:49:30 GMT+0100 (CET) - P100 - Es wurde eine Paket zum Empfangen eingetragen
Tue Jan 07 2020 21:51:07 GMT+0100 (CET) - P100 - Es wurde eine Paket zum Empfangen eingetragen
Tue Jan 07 2020 21:51:07 GMT+0100 (CET) - P100 - Es wurde eine Paket zum Empfangen eingetragen
Tue Jan 07 2020 21:52:27 GMT+0100 (CET) - P100 - Es wurde eine Paket zum Empfangen eingetragen
Tue Jan 07 2020 21:52:27 GMT+0100 (CET) - P100 - Es wurde eine Paket zum Empfangen eingetragen
Tue Jan 07 2020 21:55:02 GMT+0100 (CET) - P100 - Es wurde eine Paket zum Empfangen eingetragen
Tue Jan 07 2020 21:55:02 GMT+0100 (CET) - P100 - Es wurde eine Paket zum Empfangen eingetragen
Tue Jan 07 2020 21:58:34 GMT+0100 (CET) - P100 - Es wurde eine Paket zum Empfangen eingetragen
Tue Jan 07 2020 21:58:34 GMT+0100 (CET) - P100 - Es wurde eine Paket zum Empfangen eingetragen
Tue Jan 07 2020 22:00:36 GMT+0100 (CET) - P100 - Es wurde eine Paket zum Empfangen eingetragen
Tue Jan 07 2020 22:00:36 GMT+0100 (CET) - P100 - Es wurde eine Paket zum Empfangen eingetragen
Tue Jan 07 2020 22:51:51 GMT+0100 (CET) - P300 - Es wurden alle Pakete aus der Liste 'Empfangene Pakete' gelöscht
Tue Jan 07 2020 23:02:26 GMT+0100 (CET) - B200 - Es wurde der Serverlog komplett gelöscht. Jedoch wurde eine Sicherheitskopie als Dokument gespeichert
Tue Jan 07 2020 23:04:53 GMT+0100 (CET) - B200 - Es wurde der Serverlog komplett gelöscht. Jedoch wurde eine Sicherheitskopie als Dokument gespeichert
Wed Jan 08 2020 11:23:46 GMT+0100 (CET) - P100 - Es wurde eine Paket zum Empfangen eingetragen
Wed Jan 08 2020 11:23:46 GMT+0100 (CET) - P100 - Es wurde eine Paket zum Empfangen eingetragen
Wed Jan 08 2020 11:24:20 GMT+0100 (CET) - B200 - Es wurde der Serverlog komplett gelöscht. Jedoch wurde eine Sicherheitskopie als Dokument gespeichert
Wed Jan 08 2020 13:54:03 GMT+0100 (CET) - P100 - Es wurde eine Paket zum Empfangen eingetragen
Wed Jan 08 2020 13:54:03 GMT+0100 (CET) - P100 - Es wurde eine Paket zum Empfangen eingetragen
Wed Jan 08 2020 14:04:02 GMT+0100 (CET) - P100 - Es wurde eine Paket zum Empfangen eingetragen
Wed Jan 08 2020 14:04:02 GMT+0100 (CET) - P100 - Es wurde eine Paket zum Empfangen eingetragen
Wed Jan 08 2020 14:10:19 GMT+0100 (CET) - P100 - Es wurde eine Paket zum Empfangen eingetragen
Wed Jan 08 2020 14:10:43 GMT+0100 (CET) - P100 - Es wurde eine Paket zum Empfangen eingetragen
Wed Jan 08 2020 14:16:11 GMT+0100 (CET) - P100 - Es wurde eine Paket zum Empfangen eingetragen
Wed Jan 08 2020 14:19:48 GMT+0100 (CET) - P100 - Es wurde eine Paket zum Empfangen eingetragen
Wed Jan 08 2020 14:20:20 GMT+0100 (CET) - P100 - Es wurde eine Paket zum Empfangen eingetragen
Wed Jan 08 2020 14:20:20 GMT+0100 (CET) - P100 - Es wurde eine Paket zum Empfangen eingetragen
Wed Jan 08 2020 14:21:35 GMT+0100 (CET) - P100 - Es wurde eine Paket zum Empfangen eingetragen
Wed Jan 08 2020 14:21:35 GMT+0100 (CET) - P100 - Es wurde eine Paket zum Empfangen eingetragen
Wed Jan 08 2020 14:28:00 GMT+0100 (CET) - P300 - Es wurden alle Pakete aus der Liste 'Empfangene Pakete' gelöscht
Wed Jan 08 2020 14:28:03 GMT+0100 (CET) - P300 - Es wurden alle Pakete aus der Liste 'Empfangene Pakete' gelöscht
Wed Jan 08 2020 22:17:59 GMT+0100 (CET) - P100 - Es wurde eine Paket zum Empfangen eingetragen
Wed Jan 08 2020 22:42:39 GMT+0100 (CET) - P600 - Es wurde ein Paket aus der Liste 'Aktuelle Pakete' gelöscht
Wed Jan 08 2020 22:45:08 GMT+0100 (CET) - P600 - Es wurde ein Paket aus der Liste 'Aktuelle Pakete' gelöscht
Wed Jan 08 2020 22:45:13 GMT+0100 (CET) - P600 - Es wurde ein Paket aus der Liste 'Aktuelle Pakete' gelöscht
Wed Jan 08 2020 22:45:17 GMT+0100 (CET) - P600 - Es wurde ein Paket aus der Liste 'Aktuelle Pakete' gelöscht
Wed Jan 08 2020 22:45:19 GMT+0100 (CET) - P600 - Es wurde ein Paket aus der Liste 'Aktuelle Pakete' gelöscht
Wed Jan 08 2020 22:45:21 GMT+0100 (CET) - P600 - Es wurde ein Paket aus der Liste 'Aktuelle Pakete' gelöscht
Wed Jan 08 2020 22:45:22 GMT+0100 (CET) - P600 - Es wurde ein Paket aus der Liste 'Aktuelle Pakete' gelöscht
Wed Jan 08 2020 22:45:23 GMT+0100 (CET) - P600 - Es wurde ein Paket aus der Liste 'Aktuelle Pakete' gelöscht
Wed Jan 08 2020 22:45:25 GMT+0100 (CET) - P600 - Es wurde ein Paket aus der Liste 'Aktuelle Pakete' gelöscht
Wed Jan 08 2020 22:45:27 GMT+0100 (CET) - P600 - Es wurde ein Paket aus der Liste 'Aktuelle Pakete' gelöscht
Wed Jan 08 2020 22:45:29 GMT+0100 (CET) - P600 - Es wurde ein Paket aus der Liste 'Aktuelle Pakete' gelöscht
Wed Jan 08 2020 22:45:31 GMT+0100 (CET) - P600 - Es wurde ein Paket aus der Liste 'Aktuelle Pakete' gelöscht
Wed Jan 08 2020 22:45:33 GMT+0100 (CET) - P600 - Es wurde ein Paket aus der Liste 'Aktuelle Pakete' gelöscht
Wed Jan 08 2020 22:45:34 GMT+0100 (CET) - P600 - Es wurde ein Paket aus der Liste 'Aktuelle Pakete' gelöscht
Wed Jan 08 2020 22:45:36 GMT+0100 (CET) - P600 - Es wurde ein Paket aus der Liste 'Aktuelle Pakete' gelöscht
Wed Jan 08 2020 22:45:37 GMT+0100 (CET) - P600 - Es wurde ein Paket aus der Liste 'Aktuelle Pakete' gelöscht
Wed Jan 08 2020 22:45:38 GMT+0100 (CET) - P600 - Es wurde ein Paket aus der Liste 'Aktuelle Pakete' gelöscht
Wed Jan 08 2020 22:45:41 GMT+0100 (CET) - P600 - Es wurde ein Paket aus der Liste 'Aktuelle Pakete' gelöscht
Wed Jan 08 2020 22:45:48 GMT+0100 (CET) - P100 - Es wurde eine Paket zum Empfangen eingetragen
Wed Jan 08 2020 22:46:56 GMT+0100 (CET) - P100 - Es wurde eine Paket zum Empfangen eingetragen
Wed Jan 08 2020 22:47:51 GMT+0100 (CET) - P100 - Es wurde eine Paket zum Empfangen eingetragen
Wed Jan 08 2020 22:49:19 GMT+0100 (CET) - P600 - Es wurde ein Paket aus der Liste 'Aktuelle Pakete' gelöscht
Wed Jan 08 2020 22:49:41 GMT+0100 (CET) - B200 - Es wurde der Serverlog komplett gelöscht. Jedoch wurde eine Sicherheitskopie als Dokument gespeichert
Wed Jan 08 2020 22:58:29 GMT+0100 (CET) - P100 - Es wurde eine Paket zum Empfangen eingetragen
Wed Jan 08 2020 23:02:15 GMT+0100 (CET) - P600 - Es wurde ein Paket aus der Liste 'Aktuelle Pakete' gelöscht
Wed Jan 08 2020 23:28:45 GMT+0100 (CET) - E200 - Es wurde ein Mailempfänger gelöscht
Thu Jan 09 2020 08:27:32 GMT+0100 (CET) - P100 - Es wurde eine Paket zum Empfangen eingetragen
Thu Jan 09 2020 08:27:56 GMT+0100 (CET) - P600 - Es wurde ein Paket aus der Liste 'Aktuelle Pakete' gelöscht
Thu Jan 09 2020 08:34:10 GMT+0100 (CET) - P600 - Es wurde ein Paket aus der Liste 'Aktuelle Pakete' gelöscht
Thu Jan 09 2020 12:53:00 GMT+0100 (CET) - P600 - Es wurde ein Paket aus der Liste 'Aktuelle Pakete' gelöscht
Thu Jan 09 2020 12:53:20 GMT+0100 (CET) - P100 - Es wurde eine Paket zum Empfangen eingetragen
Thu Jan 09 2020 12:53:44 GMT+0100 (CET) - P600 - Es wurde ein Paket aus der Liste 'Aktuelle Pakete' gelöscht
Thu Jan 09 2020 12:54:40 GMT+0100 (CET) - P100 - Es wurde eine Paket zum Empfangen eingetragen
Thu Jan 09 2020 12:57:20 GMT+0100 (CET) - P600 - Es wurde ein Paket aus der Liste 'Aktuelle Pakete' gelöscht
Thu Jan 09 2020 13:51:01 GMT+0100 (CET) - P600 - Es wurde ein Paket aus der Liste 'Aktuelle Pakete' gelöscht
Thu Jan 09 2020 13:52:41 GMT+0100 (CET) - P600 - Es wurde ein Paket aus der Liste 'Aktuelle Pakete' gelöscht
Thu Jan 09 2020 15:05:23 GMT+0100 (CET) - P600 - Es wurde ein Paket aus der Liste 'Aktuelle Pakete' gelöscht
Thu Jan 09 2020 15:25:44 GMT+0100 (CET) - P100 - Es wurde eine Paket zum Empfangen eingetragen
Thu Jan 09 2020 15:25:52 GMT+0100 (CET) - P600 - Es wurde ein Paket aus der Liste 'Aktuelle Pakete' gelöscht
Thu Jan 09 2020 15:27:57 GMT+0100 (CET) - P100 - Es wurde eine Paket zum Empfangen eingetragen
Thu Jan 09 2020 16:02:30 GMT+0100 (CET) - P100 - Es wurde eine Paket zum Empfangen eingetragen
Thu Jan 09 2020 17:52:10 GMT+0100 (CET) - P100 - Es wurde eine Paket zum Empfangen eingetragen
Thu Jan 09 2020 17:53:13 GMT+0100 (CET) - P100 - Es wurde eine Paket zum Empfangen eingetragen
Thu Jan 09 2020 18:16:14 GMT+0100 (CET) - P600 - Es wurde ein Paket aus der Liste 'Aktuelle Pakete' gelöscht
Thu Jan 09 2020 18:16:16 GMT+0100 (CET) - P600 - Es wurde ein Paket aus der Liste 'Aktuelle Pakete' gelöscht
Thu Jan 09 2020 20:49:15 GMT+0100 (CET) - E200 - Es wurde ein Mailempfänger gelöscht
Thu Jan 09 2020 22:35:45 GMT+0100 (CET) - F200 - Es wurde die Fehlertaste an der Paketbox gedrückt
Thu Jan 09 2020 22:35:48 GMT+0100 (CET) - F200 - Es wurde die Fehlertaste an der Paketbox gedrückt
Thu Jan 09 2020 22:35:53 GMT+0100 (CET) - F200 - Es wurde die Fehlertaste an der Paketbox gedrückt
Thu Jan 09 2020 22:35:54 GMT+0100 (CET) - F200 - Es wurde die Fehlertaste an der Paketbox gedrückt
Thu Jan 09 2020 22:36:11 GMT+0100 (CET) - F200 - Es wurde die Fehlertaste an der Paketbox gedrückt
Thu Jan 09 2020 22:36:39 GMT+0100 (CET) - F200 - Es wurde die Fehlertaste an der Paketbox gedrückt
Thu Jan 09 2020 22:40:42 GMT+0100 (CET) - F200 - Es wurde die Fehlertaste an der Paketbox gedrückt
Thu Jan 09 2020 22:42:03 GMT+0100 (CET) - F200 - Es wurde die Fehlertaste an der Paketbox gedrückt
Thu Jan 09 2020 22:44:36 GMT+0100 (CET) - F200 - Es wurde die Fehlertaste an der Paketbox gedrückt
Thu Jan 09 2020 22:45:27 GMT+0100 (CET) - F200 - Es wurde die Fehlertaste an der Paketbox gedrückt
Thu Jan 09 2020 22:46:46 GMT+0100 (CET) - F200 - Es wurde die Fehlertaste an der Paketbox gedrückt
Thu Jan 09 2020 22:46:53 GMT+0100 (CET) - F200 - Es wurde die Fehlertaste an der Paketbox gedrückt
Fri Jan 10 2020 08:05:38 GMT+0100 (CET) - F200 - Es wurde die Fehlertaste an der Paketbox gedrückt
Fri Jan 10 2020 08:06:00 GMT+0100 (CET) - F200 - Es wurde die Fehlertaste an der Paketbox gedrückt
Fri Jan 10 2020 08:06:21 GMT+0100 (CET) - F200 - Es wurde die Fehlertaste an der Paketbox gedrückt
Fri Jan 10 2020 08:17:03 GMT+0100 (CET) - E300 - Es wurde ein Mailempfänger geändert
Fri Jan 10 2020 08:17:17 GMT+0100 (CET) - E300 - Es wurde ein Mailempfänger geändert
Fri Jan 10 2020 08:17:33 GMT+0100 (CET) - E100 - Es wurde ein Mailempfänger hinzugefügt
Fri Jan 10 2020 08:17:53 GMT+0100 (CET) - E300 - Es wurde ein Mailempfänger geändert
Fri Jan 10 2020 08:18:33 GMT+0100 (CET) - E300 - Es wurde ein Mailempfänger geändert
Fri Jan 10 2020 08:18:45 GMT+0100 (CET) - E300 - Es wurde ein Mailempfänger geändert
Fri Jan 10 2020 08:18:49 GMT+0100 (CET) - E300 - Es wurde ein Mailempfänger geändert
Fri Jan 10 2020 09:22:16 GMT+0100 (CET) - F200 - Es wurde die Fehlertaste an der Paketbox gedrückt
Fri Jan 10 2020 09:23:31 GMT+0100 (CET) - F200 - Es wurde die Fehlertaste an der Paketbox gedrückt
Fri Jan 10 2020 09:25:52 GMT+0100 (CET) - P100 - Es wurde eine Paket zum Empfangen eingetragen
Fri Jan 10 2020 09:26:47 GMT+0100 (CET) - P100 - Es wurde eine Paket zum Empfangen eingetragen
Fri Jan 10 2020 09:27:02 GMT+0100 (CET) - F200 - Es wurde die Fehlertaste an der Paketbox gedrückt
Fri Jan 10 2020 09:28:35 GMT+0100 (CET) - F200 - Es wurde die Fehlertaste an der Paketbox gedrückt
Fri Jan 10 2020 09:30:56 GMT+0100 (CET) - E300 - Es wurde ein Mailempfänger geändert
Fri Jan 10 2020 09:31:49 GMT+0100 (CET) - E300 - Es wurde ein Mailempfänger geändert
Fri Jan 10 2020 09:32:37 GMT+0100 (CET) - F200 - Es wurde die Fehlertaste an der Paketbox gedrückt
Fri Jan 10 2020 09:32:46 GMT+0100 (CET) - F200 - Es wurde die Fehlertaste an der Paketbox gedrückt
Fri Jan 10 2020 09:35:00 GMT+0100 (CET) - F200 - Es wurde die Fehlertaste an der Paketbox gedrückt
Fri Jan 10 2020 09:35:49 GMT+0100 (CET) - F200 - Es wurde die Fehlertaste an der Paketbox gedrückt
Fri Jan 10 2020 09:37:06 GMT+0100 (CET) - F200 - Es wurde die Fehlertaste an der Paketbox gedrückt
Fri Jan 10 2020 09:38:45 GMT+0100 (CET) - F200 - Es wurde die Fehlertaste an der Paketbox gedrückt
Fri Jan 10 2020 14:54:38 GMT+0100 (CET) - F200 - Es wurde die Fehlertaste an der Paketbox gedrückt
Fri Jan 10 2020 14:58:44 GMT+0100 (CET) - F200 - Es wurde die Fehlertaste an der Paketbox gedrückt
Fri Jan 10 2020 14:59:51 GMT+0100 (CET) - F200 - Es wurde die Fehlertaste an der Paketbox gedrückt
Fri Jan 10 2020 15:04:04 GMT+0100 (CET) - F200 - Es wurde die Fehlertaste an der Paketbox gedrückt
Fri Jan 10 2020 15:07:36 GMT+0100 (CET) - F200 - Es wurde die Fehlertaste an der Paketbox gedrückt
Fri Jan 10 2020 15:08:53 GMT+0100 (CET) - F200 - Es wurde die Fehlertaste an der Paketbox gedrückt
Fri Jan 10 2020 16:22:19 GMT+0100 (CET) - E100 - Es wurde ein Mailempfänger hinzugefügt
Fri Jan 10 2020 16:22:33 GMT+0100 (CET) - P100 - Es wurde eine Paket zum Empfangen eingetragen
Fri Jan 10 2020 16:26:41 GMT+0100 (CET) - P100 - Es wurde eine Paket zum Empfangen eingetragen
Fri Jan 10 2020 16:27:06 GMT+0100 (CET) - E200 - Es wurde ein Mailempfänger gelöscht
Fri Jan 10 2020 16:27:08 GMT+0100 (CET) - E200 - Es wurde ein Mailempfänger gelöscht
Fri Jan 10 2020 16:59:37 GMT+0100 (CET) - F400 - Der Barcode wurde nicht erkannt oder konnte nicht gescannt werden
Fri Jan 10 2020 17:09:35 GMT+0100 (CET) - F400 - Der Barcode wurde nicht erkannt oder konnte nicht gescannt werden
Fri Jan 10 2020 17:10:25 GMT+0100 (CET) - F400 - Der Barcode wurde nicht erkannt oder konnte nicht gescannt werden
Fri Jan 10 2020 17:10:32 GMT+0100 (CET) - F400 - Der Barcode wurde nicht erkannt oder konnte nicht gescannt werden
Fri Jan 10 2020 17:11:38 GMT+0100 (CET) - F400 - Der Barcode wurde nicht erkannt oder konnte nicht gescannt werden
Fri Jan 10 2020 17:11:52 GMT+0100 (CET) - F400 - Der Barcode wurde nicht erkannt oder konnte nicht gescannt werden
Fri Jan 10 2020 17:16:42 GMT+0100 (CET) - F400 - Der Barcode wurde nicht erkannt oder konnte nicht gescannt werden
Fri Jan 10 2020 17:20:47 GMT+0100 (CET) - F400 - Der Barcode wurde nicht erkannt oder konnte nicht gescannt werden
Fri Jan 10 2020 17:23:07 GMT+0100 (CET) - P200 - Ein Paket wurde in die Paketbox gelegt
Fri Jan 10 2020 17:23:07 GMT+0100 (CET) - P600 - Es wurde ein Paket aus der Liste 'Aktuelle Pakete' gelöscht
Fri Jan 10 2020 17:27:02 GMT+0100 (CET) - F100 - Es wurde ein Paket mit nicht zustellbaren Paketnummer gescannt
Fri Jan 10 2020 17:28:13 GMT+0100 (CET) - P200 - Ein Paket wurde in die Paketbox gelegt
Fri Jan 10 2020 17:28:13 GMT+0100 (CET) - P600 - Es wurde ein Paket aus der Liste 'Aktuelle Pakete' gelöscht
Fri Jan 10 2020 17:31:10 GMT+0100 (CET) - P200 - Ein Paket wurde in die Paketbox gelegt
Fri Jan 10 2020 17:31:10 GMT+0100 (CET) - P600 - Es wurde ein Paket aus der Liste 'Aktuelle Pakete' gelöscht
Fri Jan 10 2020 17:32:16 GMT+0100 (CET) - F100 - Es wurde ein Paket mit nicht zustellbaren Paketnummer gescannt
Fri Jan 10 2020 17:37:32 GMT+0100 (CET) - P200 - Ein Paket wurde in die Paketbox gelegt
Fri Jan 10 2020 17:37:32 GMT+0100 (CET) - P600 - Es wurde ein Paket aus der Liste 'Aktuelle Pakete' gelöscht
Fri Jan 10 2020 19:24:58 GMT+0100 (CET) - F200 - Es wurde die Fehlertaste an der Paketbox gedrückt
Fri Jan 10 2020 19:25:58 GMT+0100 (CET) - F200 - Es wurde die Fehlertaste an der Paketbox gedrückt
Fri Jan 10 2020 19:26:00 GMT+0100 (CET) - F900 - Die Fehler wurden durch den Button auf der Weboberfläche quittiert
Fri Jan 10 2020 19:26:04 GMT+0100 (CET) - F900 - Die Fehler wurden durch den Button auf der Weboberfläche quittiert
Fri Jan 10 2020 19:26:05 GMT+0100 (CET) - F900 - Die Fehler wurden durch den Button auf der Weboberfläche quittiert
Fri Jan 10 2020 19:26:06 GMT+0100 (CET) - F900 - Die Fehler wurden durch den Button auf der Weboberfläche quittiert
Fri Jan 10 2020 19:26:45 GMT+0100 (CET) - F200 - Es wurde die Fehlertaste an der Paketbox gedrückt
Fri Jan 10 2020 19:26:46 GMT+0100 (CET) - F900 - Die Fehler wurden durch den Button auf der Weboberfläche quittiert
Fri Jan 10 2020 19:26:47 GMT+0100 (CET) - F900 - Die Fehler wurden durch den Button auf der Weboberfläche quittiert
Fri Jan 10 2020 19:26:48 GMT+0100 (CET) - F900 - Die Fehler wurden durch den Button auf der Weboberfläche quittiert
Fri Jan 10 2020 19:26:51 GMT+0100 (CET) - F900 - Die Fehler wurden durch den Button auf der Weboberfläche quittiert
Fri Jan 10 2020 19:27:19 GMT+0100 (CET) - F200 - Es wurde die Fehlertaste an der Paketbox gedrückt
Fri Jan 10 2020 19:27:21 GMT+0100 (CET) - F900 - Die Fehler wurden durch den Button auf der Weboberfläche quittiert
Fri Jan 10 2020 19:28:20 GMT+0100 (CET) - F200 - Es wurde die Fehlertaste an der Paketbox gedrückt
Fri Jan 10 2020 19:28:21 GMT+0100 (CET) - F900 - Die Fehler wurden durch den Button auf der Weboberfläche quittiert
Fri Jan 10 2020 19:28:22 GMT+0100 (CET) - F900 - Die Fehler wurden durch den Button auf der Weboberfläche quittiert
Fri Jan 10 2020 19:28:23 GMT+0100 (CET) - F900 - Die Fehler wurden durch den Button auf der Weboberfläche quittiert
Fri Jan 10 2020 19:28:23 GMT+0100 (CET) - F900 - Die Fehler wurden durch den Button auf der Weboberfläche quittiert
Fri Jan 10 2020 19:28:23 GMT+0100 (CET) - F900 - Die Fehler wurden durch den Button auf der Weboberfläche quittiert
Fri Jan 10 2020 19:28:23 GMT+0100 (CET) - F900 - Die Fehler wurden durch den Button auf der Weboberfläche quittiert
Fri Jan 10 2020 19:28:23 GMT+0100 (CET) - F900 - Die Fehler wurden durch den Button auf der Weboberfläche quittiert
Fri Jan 10 2020 19:28:24 GMT+0100 (CET) - F900 - Die Fehler wurden durch den Button auf der Weboberfläche quittiert
Fri Jan 10 2020 19:28:24 GMT+0100 (CET) - F900 - Die Fehler wurden durch den Button auf der Weboberfläche quittiert
Fri Jan 10 2020 19:28:24 GMT+0100 (CET) - F900 - Die Fehler wurden durch den Button auf der Weboberfläche quittiert
Fri Jan 10 2020 19:28:54 GMT+0100 (CET) - F200 - Es wurde die Fehlertaste an der Paketbox gedrückt
Fri Jan 10 2020 19:28:55 GMT+0100 (CET) - F900 - Die Fehler wurden durch den Button auf der Weboberfläche quittiert
Fri Jan 10 2020 19:29:22 GMT+0100 (CET) - F200 - Es wurde die Fehlertaste an der Paketbox gedrückt
Fri Jan 10 2020 19:29:23 GMT+0100 (CET) - F900 - Die Fehler wurden durch den Button auf der Weboberfläche quittiert
Fri Jan 10 2020 19:36:51 GMT+0100 (CET) - F900 - Die Fehler wurden durch den Button auf der Weboberfläche quittiert
Fri Jan 10 2020 19:38:29 GMT+0100 (CET) - P200 - Ein Paket wurde in die Paketbox gelegt
Fri Jan 10 2020 19:38:29 GMT+0100 (CET) - F900 - Die Fehler wurden durch den Button auf der Weboberfläche quittiert
Fri Jan 10 2020 19:38:29 GMT+0100 (CET) - P600 - Es wurde ein Paket aus der Liste 'Aktuelle Pakete' gelöscht
Fri Jan 10 2020 19:38:44 GMT+0100 (CET) - F900 - Die Fehler wurden durch den Button auf der Weboberfläche quittiert
Fri Jan 10 2020 21:21:22 GMT+0100 (CET) - F900 - Die Fehler wurden durch den Button auf der Weboberfläche quittiert
Fri Jan 10 2020 21:22:27 GMT+0100 (CET) - F900 - Die Fehler wurden durch den Button auf der Weboberfläche quittiert
Fri Jan 10 2020 21:22:46 GMT+0100 (CET) - F900 - Die Fehler wurden durch den Button auf der Weboberfläche quittiert
Fri Jan 10 2020 21:23:05 GMT+0100 (CET) - F100 - Es wurde ein Paket mit nicht zustellbaren Paketnummer gescannt
Fri Jan 10 2020 21:23:27 GMT+0100 (CET) - P200 - Ein Paket wurde in die Paketbox gelegt
Fri Jan 10 2020 21:23:27 GMT+0100 (CET) - F900 - Die Fehler wurden durch den Button auf der Weboberfläche quittiert
Fri Jan 10 2020 21:23:27 GMT+0100 (CET) - P600 - Es wurde ein Paket aus der Liste 'Aktuelle Pakete' gelöscht
Fri Jan 10 2020 21:23:38 GMT+0100 (CET) - F900 - Die Fehler wurden durch den Button auf der Weboberfläche quittiert
Fri Jan 10 2020 21:26:25 GMT+0100 (CET) - F100 - Es wurde ein Paket mit nicht zustellbaren Paketnummer gescannt
Fri Jan 10 2020 21:26:37 GMT+0100 (CET) - F100 - Es wurde ein Paket mit nicht zustellbaren Paketnummer gescannt
Fri Jan 10 2020 21:27:42 GMT+0100 (CET) - F100 - Es wurde ein Paket mit nicht zustellbaren Paketnummer gescannt
Fri Jan 10 2020 21:27:47 GMT+0100 (CET) - F200 - Es wurde die Fehlertaste an der Paketbox gedrückt
Fri Jan 10 2020 21:27:51 GMT+0100 (CET) - F900 - Die Fehler wurden durch den Button auf der Weboberfläche quittiert
Fri Jan 10 2020 21:28:58 GMT+0100 (CET) - F200 - Es wurde die Fehlertaste an der Paketbox gedrückt
Fri Jan 10 2020 21:29:16 GMT+0100 (CET) - F100 - Es wurde ein Paket mit nicht zustellbaren Paketnummer gescannt
Fri Jan 10 2020 21:29:57 GMT+0100 (CET) - F100 - Es wurde ein Paket mit nicht zustellbaren Paketnummer gescannt
Fri Jan 10 2020 21:30:40 GMT+0100 (CET) - B800 - Der Starttaster wurde gedrückt
Fri Jan 10 2020 21:30:40 GMT+0100 (CET) - F100 - Es wurde ein Paket mit nicht zustellbaren Paketnummer gescannt
Fri Jan 10 2020 21:31:30 GMT+0100 (CET) - B800 - Der Starttaster wurde gedrückt
Fri Jan 10 2020 21:31:30 GMT+0100 (CET) - F100 - Es wurde ein Paket mit nicht zustellbaren Paketnummer gescannt
Fri Jan 10 2020 21:32:59 GMT+0100 (CET) - F200 - Es wurde die Fehlertaste an der Paketbox gedrückt
Fri Jan 10 2020 21:37:16 GMT+0100 (CET) - F900 - Die Fehler wurden durch den Button auf der Weboberfläche quittiert
Fri Jan 10 2020 21:38:14 GMT+0100 (CET) - F900 - Die Fehler wurden durch den Button auf der Weboberfläche quittiert
Fri Jan 10 2020 21:40:21 GMT+0100 (CET) - F200 - Es wurde die Fehlertaste an der Paketbox gedrückt
Fri Jan 10 2020 21:40:24 GMT+0100 (CET) - F900 - Die Fehler wurden durch den Button auf der Weboberfläche quittiert
Fri Jan 10 2020 21:56:49 GMT+0100 (CET) - F200 - Es wurde die Fehlertaste an der Paketbox gedrückt
Fri Jan 10 2020 21:59:31 GMT+0100 (CET) - F200 - Es wurde die Fehlertaste an der Paketbox gedrückt
Fri Jan 10 2020 21:59:48 GMT+0100 (CET) - F900 - Die Fehler wurden durch den Button auf der Weboberfläche quittiert
Fri Jan 10 2020 21:59:50 GMT+0100 (CET) - F200 - Es wurde die Fehlertaste an der Paketbox gedrückt
Fri Jan 10 2020 21:59:52 GMT+0100 (CET) - F900 - Die Fehler wurden durch den Button auf der Weboberfläche quittiert
Fri Jan 10 2020 22:01:13 GMT+0100 (CET) - F200 - Es wurde die Fehlertaste an der Paketbox gedrückt
Fri Jan 10 2020 22:02:10 GMT+0100 (CET) - F200 - Es wurde die Fehlertaste an der Paketbox gedrückt
Fri Jan 10 2020 22:03:40 GMT+0100 (CET) - F200 - Es wurde die Fehlertaste an der Paketbox gedrückt
Fri Jan 10 2020 22:07:00 GMT+0100 (CET) - F200 - Es wurde die Fehlertaste an der Paketbox gedrückt
Fri Jan 10 2020 22:07:09 GMT+0100 (CET) - B800 - Der Starttaster wurde gedrückt
Fri Jan 10 2020 22:07:09 GMT+0100 (CET) - P200 - Ein Paket wurde in die Paketbox gelegt
Fri Jan 10 2020 22:07:09 GMT+0100 (CET) - F900 - Die Fehler wurden durch den Button auf der Weboberfläche quittiert
Fri Jan 10 2020 22:07:09 GMT+0100 (CET) - P600 - Es wurde ein Paket aus der Liste 'Aktuelle Pakete' gelöscht
Fri Jan 10 2020 22:09:27 GMT+0100 (CET) - B800 - Der Starttaster wurde gedrückt
Fri Jan 10 2020 22:09:27 GMT+0100 (CET) - F100 - Es wurde ein Paket mit nicht zustellbaren Paketnummer gescannt
Fri Jan 10 2020 22:13:19 GMT+0100 (CET) - B800 - Der Starttaster wurde gedrückt
Fri Jan 10 2020 22:13:19 GMT+0100 (CET) - F100 - Es wurde ein Paket mit nicht zustellbaren Paketnummer gescannt
Fri Jan 10 2020 22:15:24 GMT+0100 (CET) - B800 - Der Starttaster wurde gedrückt
Fri Jan 10 2020 22:15:24 GMT+0100 (CET) - F100 - Es wurde ein Paket mit nicht zustellbaren Paketnummer gescannt
Fri Jan 10 2020 22:15:31 GMT+0100 (CET) - F200 - Es wurde die Fehlertaste an der Paketbox gedrückt
Fri Jan 10 2020 22:15:34 GMT+0100 (CET) - F900 - Die Fehler wurden durch den Button auf der Weboberfläche quittiert
Fri Jan 10 2020 22:15:35 GMT+0100 (CET) - B800 - Der Starttaster wurde gedrückt
Fri Jan 10 2020 22:15:35 GMT+0100 (CET) - F100 - Es wurde ein Paket mit nicht zustellbaren Paketnummer gescannt
Fri Jan 10 2020 22:16:35 GMT+0100 (CET) - F200 - Es wurde die Fehlertaste an der Paketbox gedrückt
Fri Jan 10 2020 22:16:37 GMT+0100 (CET) - F200 - Es wurde die Fehlertaste an der Paketbox gedrückt
Fri Jan 10 2020 22:16:39 GMT+0100 (CET) - F200 - Es wurde die Fehlertaste an der Paketbox gedrückt
Fri Jan 10 2020 22:16:40 GMT+0100 (CET) - F200 - Es wurde die Fehlertaste an der Paketbox gedrückt
Fri Jan 10 2020 22:20:22 GMT+0100 (CET) - B800 - Der Starttaster wurde gedrückt
Fri Jan 10 2020 22:20:22 GMT+0100 (CET) - F100 - Es wurde ein Paket mit nicht zustellbaren Paketnummer gescannt
Fri Jan 10 2020 22:22:05 GMT+0100 (CET) - F900 - Die Fehler wurden durch den Button auf der Weboberfläche quittiert
Sat Jan 11 2020 11:28:29 GMT+0100 (CET) - F900 - Die Fehler wurden durch den Button auf der Weboberfläche quittiert
Sat Jan 11 2020 11:29:34 GMT+0100 (CET) - B800 - Der Starttaster wurde gedrückt
Sat Jan 11 2020 11:29:34 GMT+0100 (CET) - F100 - Es wurde ein Paket mit nicht zustellbaren Paketnummer gescannt
Sat Jan 11 2020 11:29:37 GMT+0100 (CET) - F200 - Es wurde die Fehlertaste an der Paketbox gedrückt
Sat Jan 11 2020 11:29:52 GMT+0100 (CET) - F900 - Die Fehler wurden durch den Button auf der Weboberfläche quittiert
Sat Jan 11 2020 11:30:11 GMT+0100 (CET) - F900 - Die Fehler wurden durch den Button auf der Weboberfläche quittiert
Sat Jan 11 2020 11:31:46 GMT+0100 (CET) - B800 - Der Starttaster wurde gedrückt
Sat Jan 11 2020 11:31:46 GMT+0100 (CET) - F100 - Es wurde ein Paket mit nicht zustellbaren Paketnummer gescannt
Sat Jan 11 2020 11:32:17 GMT+0100 (CET) - B800 - Der Starttaster wurde gedrückt
Sat Jan 11 2020 11:32:17 GMT+0100 (CET) - F100 - Es wurde ein Paket mit nicht zustellbaren Paketnummer gescannt
Sat Jan 11 2020 11:32:52 GMT+0100 (CET) - F200 - Es wurde die Fehlertaste an der Paketbox gedrückt
Sat Jan 11 2020 11:32:56 GMT+0100 (CET) - F900 - Die Fehler wurden durch den Button auf der Weboberfläche quittiert
Sat Jan 11 2020 11:34:47 GMT+0100 (CET) - F200 - Es wurde die Fehlertaste an der Paketbox gedrückt
Sat Jan 11 2020 11:34:50 GMT+0100 (CET) - F900 - Die Fehler wurden durch den Button auf der Weboberfläche quittiert
Sat Jan 11 2020 11:34:51 GMT+0100 (CET) - F200 - Es wurde die Fehlertaste an der Paketbox gedrückt
Sat Jan 11 2020 11:34:53 GMT+0100 (CET) - F900 - Die Fehler wurden durch den Button auf der Weboberfläche quittiert
Sat Jan 11 2020 11:34:56 GMT+0100 (CET) - B800 - Der Starttaster wurde gedrückt
Sat Jan 11 2020 11:34:56 GMT+0100 (CET) - F100 - Es wurde ein Paket mit nicht zustellbaren Paketnummer gescannt
Sat Jan 11 2020 11:35:03 GMT+0100 (CET) - B800 - Der Starttaster wurde gedrückt
Sat Jan 11 2020 11:35:03 GMT+0100 (CET) - F100 - Es wurde ein Paket mit nicht zustellbaren Paketnummer gescannt
Sat Jan 11 2020 11:42:51 GMT+0100 (CET) - F200 - Es wurde die Fehlertaste an der Paketbox gedrückt
Sat Jan 11 2020 11:44:00 GMT+0100 (CET) - F200 - Es wurde die Fehlertaste an der Paketbox gedrückt
Sat Jan 11 2020 11:44:07 GMT+0100 (CET) - F900 - Die Fehler wurden durch den Button auf der Weboberfläche quittiert
Sat Jan 11 2020 11:44:15 GMT+0100 (CET) - B800 - Der Starttaster wurde gedrückt
Sat Jan 11 2020 11:44:15 GMT+0100 (CET) - F100 - Es wurde ein Paket mit nicht zustellbaren Paketnummer gescannt
Sat Jan 11 2020 11:59:02 GMT+0100 (CET) - P100 - Es wurde eine Paket zum Empfangen eingetragen
Sat Jan 11 2020 11:59:09 GMT+0100 (CET) - P100 - Es wurde eine Paket zum Empfangen eingetragen
Sat Jan 11 2020 11:59:17 GMT+0100 (CET) - P100 - Es wurde eine Paket zum Empfangen eingetragen
Sat Jan 11 2020 12:20:17 GMT+0100 (CET) - B800 - Der Starttaster wurde gedrückt
Sat Jan 11 2020 12:20:17 GMT+0100 (CET) - F100 - Es wurde ein Paket mit nicht zustellbaren Paketnummer gescannt
Sat Jan 11 2020 13:02:30 GMT+0100 (CET) - F200 - Es wurde die Fehlertaste an der Paketbox gedrückt
Sat Jan 11 2020 13:02:32 GMT+0100 (CET) - F900 - Die Fehler wurden durch den Button auf der Weboberfläche quittiert
Sat Jan 11 2020 13:02:33 GMT+0100 (CET) - F200 - Es wurde die Fehlertaste an der Paketbox gedrückt
Sat Jan 11 2020 13:02:34 GMT+0100 (CET) - F900 - Die Fehler wurden durch den Button auf der Weboberfläche quittiert
Sat Jan 11 2020 13:02:35 GMT+0100 (CET) - F200 - Es wurde die Fehlertaste an der Paketbox gedrückt
Sat Jan 11 2020 13:02:36 GMT+0100 (CET) - F900 - Die Fehler wurden durch den Button auf der Weboberfläche quittiert
Sat Jan 11 2020 13:30:32 GMT+0100 (CET) - P700 - Es wurde ein Paket aus der Liste 'Aktuelle Pakete' geändert
Sat Jan 11 2020 13:30:47 GMT+0100 (CET) - P700 - Es wurde ein Paket aus der Liste 'Aktuelle Pakete' geändert
Sat Jan 11 2020 13:31:47 GMT+0100 (CET) - P700 - Es wurde ein Paket aus der Liste 'Aktuelle Pakete' geändert
Sat Jan 11 2020 14:02:05 GMT+0100 (CET) - P700 - Es wurde ein Paket aus der Liste 'Aktuelle Pakete' geändert
Sat Jan 11 2020 14:04:37 GMT+0100 (CET) - P700 - Es wurde ein Paket aus der Liste 'Aktuelle Pakete' geändert
Sat Jan 11 2020 14:04:42 GMT+0100 (CET) - P700 - Es wurde ein Paket aus der Liste 'Aktuelle Pakete' geändert
Sat Jan 11 2020 14:05:15 GMT+0100 (CET) - P700 - Es wurde ein Paket aus der Liste 'Aktuelle Pakete' geändert
Sat Jan 11 2020 14:05:28 GMT+0100 (CET) - P700 - Es wurde ein Paket aus der Liste 'Aktuelle Pakete' geändert
Sat Jan 11 2020 14:05:40 GMT+0100 (CET) - P700 - Es wurde ein Paket aus der Liste 'Aktuelle Pakete' geändert
Sat Jan 11 2020 14:12:14 GMT+0100 (CET) - B800 - Der Starttaster wurde gedrückt
Sat Jan 11 2020 14:12:14 GMT+0100 (CET) - F100 - Es wurde ein Paket mit nicht zustellbaren Paketnummer gescannt
Sat Jan 11 2020 14:14:57 GMT+0100 (CET) - B800 - Der Starttaster wurde gedrückt
Sat Jan 11 2020 14:14:57 GMT+0100 (CET) - F100 - Es wurde ein Paket mit nicht zustellbaren Paketnummer gescannt
Sat Jan 11 2020 14:16:01 GMT+0100 (CET) - B800 - Der Starttaster wurde gedrückt
Sat Jan 11 2020 14:16:02 GMT+0100 (CET) - F100 - Es wurde ein Paket mit nicht zustellbaren Paketnummer gescannt
Sat Jan 11 2020 17:41:24 GMT+0100 (CET) - P300 - Es wurden alle Pakete aus der Liste 'Empfangene Pakete' gelöscht
Sat Jan 11 2020 17:41:40 GMT+0100 (CET) - P300 - Es wurden alle Pakete aus der Liste 'Empfangene Pakete' gelöscht
Sat Jan 11 2020 17:42:02 GMT+0100 (CET) - B800 - Der Starttaster wurde gedrückt
Sat Jan 11 2020 17:42:02 GMT+0100 (CET) - F100 - Es wurde ein Paket mit nicht zustellbaren Paketnummer gescannt
Sat Jan 11 2020 17:42:11 GMT+0100 (CET) - B800 - Der Starttaster wurde gedrückt
Sat Jan 11 2020 17:42:11 GMT+0100 (CET) - F100 - Es wurde ein Paket mit nicht zustellbaren Paketnummer gescannt
Sat Jan 11 2020 17:52:10 GMT+0100 (CET) - F900 - Die Fehler wurden durch den Button auf der Weboberfläche quittiert
Sat Jan 11 2020 17:55:50 GMT+0100 (CET) - P100 - Es wurde eine Paket zum Empfangen eingetragen
Sat Jan 11 2020 17:56:03 GMT+0100 (CET) - P700 - Es wurde ein Paket aus der Liste 'Aktuelle Pakete' geändert
Sat Jan 11 2020 17:56:28 GMT+0100 (CET) - P700 - Es wurde ein Paket aus der Liste 'Aktuelle Pakete' geändert
Sat Jan 11 2020 17:57:37 GMT+0100 (CET) - F200 - Es wurde die Fehlertaste an der Paketbox gedrückt
Sat Jan 11 2020 17:57:41 GMT+0100 (CET) - B800 - Der Starttaster wurde gedrückt
Sat Jan 11 2020 17:57:41 GMT+0100 (CET) - F100 - Es wurde ein Paket mit nicht zustellbaren Paketnummer gescannt
Sat Jan 11 2020 17:57:44 GMT+0100 (CET) - F900 - Die Fehler wurden durch den Button auf der Weboberfläche quittiert
Sat Jan 11 2020 18:06:13 GMT+0100 (CET) - B800 - Der Starttaster wurde gedrückt
Sat Jan 11 2020 18:06:13 GMT+0100 (CET) - F100 - Es wurde ein Paket mit nicht zustellbaren Paketnummer gescannt
Sat Jan 11 2020 18:06:17 GMT+0100 (CET) - F900 - Die Fehler wurden durch den Button auf der Weboberfläche quittiert
Sat Jan 11 2020 18:07:00 GMT+0100 (CET) - B800 - Der Starttaster wurde gedrückt
Sat Jan 11 2020 18:07:00 GMT+0100 (CET) - P200 - Ein Paket wurde in die Paketbox gelegt
Sat Jan 11 2020 18:07:00 GMT+0100 (CET) - F900 - Die Fehler wurden durch den Button auf der Weboberfläche quittiert
Sat Jan 11 2020 18:07:00 GMT+0100 (CET) - P600 - Es wurde ein Paket aus der Liste 'Aktuelle Pakete' gelöscht
Sat Jan 11 2020 18:08:20 GMT+0100 (CET) - F900 - Die Fehler wurden durch den Button auf der Weboberfläche quittiert
Sat Jan 11 2020 18:10:40 GMT+0100 (CET) - F900 - Die Fehler wurden durch den Button auf der Weboberfläche quittiert
Sat Jan 11 2020 18:11:14 GMT+0100 (CET) - F900 - Die Fehler wurden durch den Button auf der Weboberfläche quittiert
Sat Jan 11 2020 18:12:40 GMT+0100 (CET) - B800 - Der Starttaster wurde gedrückt
Sat Jan 11 2020 18:12:40 GMT+0100 (CET) - P200 - Ein Paket wurde in die Paketbox gelegt
Sat Jan 11 2020 18:12:40 GMT+0100 (CET) - F900 - Die Fehler wurden durch den Button auf der Weboberfläche quittiert
Sat Jan 11 2020 18:12:40 GMT+0100 (CET) - P600 - Es wurde ein Paket aus der Liste 'Aktuelle Pakete' gelöscht
Sat Jan 11 2020 18:26:48 GMT+0100 (CET) - P100 - Es wurde eine Paket zum Empfangen eingetragen
Sat Jan 11 2020 18:28:02 GMT+0100 (CET) - F900 - Die Fehler wurden durch den Button auf der Weboberfläche quittiert
Sat Jan 11 2020 18:29:21 GMT+0100 (CET) - F200 - Es wurde die Fehlertaste an der Paketbox gedrückt
Sat Jan 11 2020 18:29:22 GMT+0100 (CET) - F900 - Die Fehler wurden durch den Button auf der Weboberfläche quittiert
Sat Jan 11 2020 18:50:21 GMT+0100 (CET) - F200 - Es wurde die Fehlertaste an der Paketbox gedrückt
Sat Jan 11 2020 18:50:28 GMT+0100 (CET) - F900 - Die Fehler wurden durch den Button auf der Weboberfläche quittiert
Sat Jan 11 2020 18:50:30 GMT+0100 (CET) - F200 - Es wurde die Fehlertaste an der Paketbox gedrückt
Sat Jan 11 2020 19:23:54 GMT+0100 (CET) - F200 - Es wurde die Fehlertaste an der Paketbox gedrückt
Sat Jan 11 2020 19:43:05 GMT+0100 (CET) - P700 - Es wurde ein Paket aus der Liste 'Aktuelle Pakete' geändert
Sat Jan 11 2020 19:44:50 GMT+0100 (CET) - P700 - Es wurde ein Paket aus der Liste 'Aktuelle Pakete' geändert
Sat Jan 11 2020 19:45:06 GMT+0100 (CET) - P600 - Es wurde ein Paket aus der Liste 'Aktuelle Pakete' gelöscht
Sat Jan 11 2020 19:45:37 GMT+0100 (CET) - P100 - Es wurde eine Paket zum Empfangen eingetragen
Sat Jan 11 2020 19:52:44 GMT+0100 (CET) - B800 - Der Starttaster wurde gedrückt
Sat Jan 11 2020 19:52:44 GMT+0100 (CET) - P200 - Ein Paket wurde in die Paketbox gelegt
Sat Jan 11 2020 19:52:44 GMT+0100 (CET) - F900 - Die Fehler wurden durch den Button auf der Weboberfläche quittiert
Sat Jan 11 2020 19:52:44 GMT+0100 (CET) - P600 - Es wurde ein Paket aus der Liste 'Aktuelle Pakete' gelöscht
Sat Jan 11 2020 19:55:05 GMT+0100 (CET) - B800 - Der Starttaster wurde gedrückt
Sat Jan 11 2020 19:55:05 GMT+0100 (CET) - P200 - Ein Paket wurde in die Paketbox gelegt
Sat Jan 11 2020 19:55:05 GMT+0100 (CET) - F900 - Die Fehler wurden durch den Button auf der Weboberfläche quittiert
Sat Jan 11 2020 19:55:05 GMT+0100 (CET) - P600 - Es wurde ein Paket aus der Liste 'Aktuelle Pakete' gelöscht
Sat Jan 11 2020 19:56:08 GMT+0100 (CET) - B800 - Der Starttaster wurde gedrückt
Sat Jan 11 2020 19:56:08 GMT+0100 (CET) - P200 - Ein Paket wurde in die Paketbox gelegt
Sat Jan 11 2020 19:56:08 GMT+0100 (CET) - F900 - Die Fehler wurden durch den Button auf der Weboberfläche quittiert
Sat Jan 11 2020 19:56:08 GMT+0100 (CET) - P600 - Es wurde ein Paket aus der Liste 'Aktuelle Pakete' gelöscht
Sat Jan 11 2020 19:56:40 GMT+0100 (CET) - P700 - Es wurde ein Paket aus der Liste 'Aktuelle Pakete' geändert
Sat Jan 11 2020 19:57:03 GMT+0100 (CET) - P700 - Es wurde ein Paket aus der Liste 'Aktuelle Pakete' geändert
Sat Jan 11 2020 20:07:28 GMT+0100 (CET) - P700 - Es wurde ein Paket aus der Liste 'Aktuelle Pakete' geändert
Sat Jan 11 2020 20:08:08 GMT+0100 (CET) - P700 - Es wurde ein Paket aus der Liste 'Aktuelle Pakete' geändert
Sat Jan 11 2020 20:18:44 GMT+0100 (CET) - P700 - Es wurde ein Paket aus der Liste 'Aktuelle Pakete' geändert
Sat Jan 11 2020 20:19:06 GMT+0100 (CET) - P700 - Es wurde ein Paket aus der Liste 'Aktuelle Pakete' geändert
Sat Jan 11 2020 20:19:14 GMT+0100 (CET) - P600 - Es wurde ein Paket aus der Liste 'Aktuelle Pakete' gelöscht
Sat Jan 11 2020 20:19:20 GMT+0100 (CET) - P600 - Es wurde ein Paket aus der Liste 'Aktuelle Pakete' gelöscht
Sat Jan 11 2020 20:19:30 GMT+0100 (CET) - P600 - Es wurde ein Paket aus der Liste 'Aktuelle Pakete' gelöscht
Sat Jan 11 2020 20:19:31 GMT+0100 (CET) - P600 - Es wurde ein Paket aus der Liste 'Aktuelle Pakete' gelöscht
Sat Jan 11 2020 20:19:31 GMT+0100 (CET) - P600 - Es wurde ein Paket aus der Liste 'Aktuelle Pakete' gelöscht
Sat Jan 11 2020 20:19:31 GMT+0100 (CET) - P600 - Es wurde ein Paket aus der Liste 'Aktuelle Pakete' gelöscht
Sat Jan 11 2020 20:19:31 GMT+0100 (CET) - P600 - Es wurde ein Paket aus der Liste 'Aktuelle Pakete' gelöscht
Sat Jan 11 2020 20:19:31 GMT+0100 (CET) - P600 - Es wurde ein Paket aus der Liste 'Aktuelle Pakete' gelöscht
Sat Jan 11 2020 20:19:48 GMT+0100 (CET) - E100 - Es wurde ein Mailempfänger hinzugefügt
Sat Jan 11 2020 20:19:55 GMT+0100 (CET) - E300 - Es wurde ein Mailempfänger geändert
Sat Jan 11 2020 20:19:57 GMT+0100 (CET) - E200 - Es wurde ein Mailempfänger gelöscht
Sat Jan 11 2020 20:21:03 GMT+0100 (CET) - P600 - Es wurde ein Paket aus der Liste 'Aktuelle Pakete' gelöscht
Sat Jan 11 2020 20:21:04 GMT+0100 (CET) - P600 - Es wurde ein Paket aus der Liste 'Aktuelle Pakete' gelöscht
Sat Jan 11 2020 20:21:04 GMT+0100 (CET) - P600 - Es wurde ein Paket aus der Liste 'Aktuelle Pakete' gelöscht
Sat Jan 11 2020 20:21:04 GMT+0100 (CET) - P600 - Es wurde ein Paket aus der Liste 'Aktuelle Pakete' gelöscht
Sat Jan 11 2020 20:21:05 GMT+0100 (CET) - P600 - Es wurde ein Paket aus der Liste 'Aktuelle Pakete' gelöscht
Sat Jan 11 2020 20:21:05 GMT+0100 (CET) - P600 - Es wurde ein Paket aus der Liste 'Aktuelle Pakete' gelöscht
Sat Jan 11 2020 20:23:00 GMT+0100 (CET) - P100 - Es wurde eine Paket zum Empfangen eingetragen
Sat Jan 11 2020 20:23:13 GMT+0100 (CET) - P100 - Es wurde eine Paket zum Empfangen eingetragen
Sat Jan 11 2020 20:24:58 GMT+0100 (CET) - E100 - Es wurde ein Mailempfänger hinzugefügt
Sat Jan 11 2020 20:25:07 GMT+0100 (CET) - P100 - Es wurde eine Paket zum Empfangen eingetragen
Sat Jan 11 2020 20:25:30 GMT+0100 (CET) - P600 - Es wurde ein Paket aus der Liste 'Aktuelle Pakete' gelöscht
Sat Jan 11 2020 20:27:13 GMT+0100 (CET) - B800 - Der Starttaster wurde gedrückt
Sat Jan 11 2020 20:27:13 GMT+0100 (CET) - P200 - Ein Paket wurde in die Paketbox gelegt
Sat Jan 11 2020 20:27:13 GMT+0100 (CET) - F900 - Die Fehler wurden durch den Button auf der Weboberfläche quittiert
Sat Jan 11 2020 20:27:13 GMT+0100 (CET) - P600 - Es wurde ein Paket aus der Liste 'Aktuelle Pakete' gelöscht
Sat Jan 11 2020 20:30:18 GMT+0100 (CET) - B800 - Der Starttaster wurde gedrückt
Sat Jan 11 2020 20:30:18 GMT+0100 (CET) - P200 - Ein Paket wurde in die Paketbox gelegt
Sat Jan 11 2020 20:30:18 GMT+0100 (CET) - F900 - Die Fehler wurden durch den Button auf der Weboberfläche quittiert
Sat Jan 11 2020 20:30:18 GMT+0100 (CET) - P600 - Es wurde ein Paket aus der Liste 'Aktuelle Pakete' gelöscht
Sat Jan 11 2020 20:39:44 GMT+0100 (CET) - P100 - Es wurde eine Paket zum Empfangen eingetragen
Sat Jan 11 2020 20:39:49 GMT+0100 (CET) - P100 - Es wurde eine Paket zum Empfangen eingetragen
Sat Jan 11 2020 20:39:55 GMT+0100 (CET) - P100 - Es wurde eine Paket zum Empfangen eingetragen
Sat Jan 11 2020 20:40:42 GMT+0100 (CET) - B800 - Der Starttaster wurde gedrückt
Sat Jan 11 2020 20:40:42 GMT+0100 (CET) - P200 - Ein Paket wurde in die Paketbox gelegt
Sat Jan 11 2020 20:40:42 GMT+0100 (CET) - F900 - Die Fehler wurden durch den Button auf der Weboberfläche quittiert
Sat Jan 11 2020 20:40:42 GMT+0100 (CET) - P600 - Es wurde ein Paket aus der Liste 'Aktuelle Pakete' gelöscht
Sat Jan 11 2020 20:43:24 GMT+0100 (CET) - F900 - Die Fehler wurden durch den Button auf der Weboberfläche quittiert
Sat Jan 11 2020 20:45:33 GMT+0100 (CET) - B800 - Der Starttaster wurde gedrückt
Sat Jan 11 2020 20:45:33 GMT+0100 (CET) - P200 - Ein Paket wurde in die Paketbox gelegt
Sat Jan 11 2020 20:45:33 GMT+0100 (CET) - F900 - Die Fehler wurden durch den Button auf der Weboberfläche quittiert
Sat Jan 11 2020 20:45:33 GMT+0100 (CET) - P600 - Es wurde ein Paket aus der Liste 'Aktuelle Pakete' gelöscht
Sat Jan 11 2020 20:49:44 GMT+0100 (CET) - P100 - Es wurde eine Paket zum Empfangen eingetragen
Sat Jan 11 2020 20:49:46 GMT+0100 (CET) - F300 - Es wurde versucht ein Paket in die Liste 'Erwartete Pakete' einzutragen
Sat Jan 11 2020 20:49:49 GMT+0100 (CET) - P100 - Es wurde eine Paket zum Empfangen eingetragen
Sat Jan 11 2020 20:49:52 GMT+0100 (CET) - P100 - Es wurde eine Paket zum Empfangen eingetragen
Sat Jan 11 2020 20:49:54 GMT+0100 (CET) - P100 - Es wurde eine Paket zum Empfangen eingetragen
Sat Jan 11 2020 20:50:06 GMT+0100 (CET) - B800 - Der Starttaster wurde gedrückt
Sat Jan 11 2020 20:50:06 GMT+0100 (CET) - P200 - Ein Paket wurde in die Paketbox gelegt
Sat Jan 11 2020 20:50:06 GMT+0100 (CET) - F900 - Die Fehler wurden durch den Button auf der Weboberfläche quittiert
Sat Jan 11 2020 20:50:06 GMT+0100 (CET) - P600 - Es wurde ein Paket aus der Liste 'Aktuelle Pakete' gelöscht
Sat Jan 11 2020 20:50:19 GMT+0100 (CET) - F900 - Die Fehler wurden durch den Button auf der Weboberfläche quittiert
Sat Jan 11 2020 20:50:32 GMT+0100 (CET) - B800 - Der Starttaster wurde gedrückt
Sat Jan 11 2020 20:50:32 GMT+0100 (CET) - P200 - Ein Paket wurde in die Paketbox gelegt
Sat Jan 11 2020 20:50:32 GMT+0100 (CET) - F900 - Die Fehler wurden durch den Button auf der Weboberfläche quittiert
Sat Jan 11 2020 20:50:32 GMT+0100 (CET) - P600 - Es wurde ein Paket aus der Liste 'Aktuelle Pakete' gelöscht
Sat Jan 11 2020 20:51:14 GMT+0100 (CET) - F900 - Die Fehler wurden durch den Button auf der Weboberfläche quittiert
Sat Jan 11 2020 20:51:25 GMT+0100 (CET) - B800 - Der Starttaster wurde gedrückt
Sat Jan 11 2020 20:51:25 GMT+0100 (CET) - P200 - Ein Paket wurde in die Paketbox gelegt
Sat Jan 11 2020 20:51:25 GMT+0100 (CET) - F900 - Die Fehler wurden durch den Button auf der Weboberfläche quittiert
Sat Jan 11 2020 20:51:25 GMT+0100 (CET) - P600 - Es wurde ein Paket aus der Liste 'Aktuelle Pakete' gelöscht
Sat Jan 11 2020 20:53:35 GMT+0100 (CET) - F900 - Die Fehler wurden durch den Button auf der Weboberfläche quittiert
Sat Jan 11 2020 20:53:48 GMT+0100 (CET) - B800 - Der Starttaster wurde gedrückt
Sat Jan 11 2020 20:53:48 GMT+0100 (CET) - P200 - Ein Paket wurde in die Paketbox gelegt
Sat Jan 11 2020 20:53:48 GMT+0100 (CET) - F900 - Die Fehler wurden durch den Button auf der Weboberfläche quittiert
Sat Jan 11 2020 20:53:48 GMT+0100 (CET) - P600 - Es wurde ein Paket aus der Liste 'Aktuelle Pakete' gelöscht
Sat Jan 11 2020 20:53:51 GMT+0100 (CET) - F900 - Die Fehler wurden durch den Button auf der Weboberfläche quittiert
Sat Jan 11 2020 20:54:10 GMT+0100 (CET) - B800 - Der Starttaster wurde gedrückt
Sat Jan 11 2020 20:54:10 GMT+0100 (CET) - P200 - Ein Paket wurde in die Paketbox gelegt
Sat Jan 11 2020 20:54:10 GMT+0100 (CET) - F900 - Die Fehler wurden durch den Button auf der Weboberfläche quittiert
Sat Jan 11 2020 20:54:10 GMT+0100 (CET) - P600 - Es wurde ein Paket aus der Liste 'Aktuelle Pakete' gelöscht
Sat Jan 11 2020 20:55:41 GMT+0100 (CET) - P100 - Es wurde eine Paket zum Empfangen eingetragen
Sat Jan 11 2020 20:55:44 GMT+0100 (CET) - P100 - Es wurde eine Paket zum Empfangen eingetragen
Sat Jan 11 2020 20:55:55 GMT+0100 (CET) - B800 - Der Starttaster wurde gedrückt
Sat Jan 11 2020 20:55:55 GMT+0100 (CET) - P200 - Ein Paket wurde in die Paketbox gelegt
Sat Jan 11 2020 20:55:55 GMT+0100 (CET) - F900 - Die Fehler wurden durch den Button auf der Weboberfläche quittiert
Sat Jan 11 2020 20:55:55 GMT+0100 (CET) - P600 - Es wurde ein Paket aus der Liste 'Aktuelle Pakete' gelöscht
Sat Jan 11 2020 20:56:05 GMT+0100 (CET) - F900 - Die Fehler wurden durch den Button auf der Weboberfläche quittiert
Sat Jan 11 2020 20:56:17 GMT+0100 (CET) - B800 - Der Starttaster wurde gedrückt
Sat Jan 11 2020 20:56:17 GMT+0100 (CET) - P200 - Ein Paket wurde in die Paketbox gelegt
Sat Jan 11 2020 20:56:17 GMT+0100 (CET) - F900 - Die Fehler wurden durch den Button auf der Weboberfläche quittiert
Sat Jan 11 2020 20:56:17 GMT+0100 (CET) - P600 - Es wurde ein Paket aus der Liste 'Aktuelle Pakete' gelöscht
Sat Jan 11 2020 21:02:06 GMT+0100 (CET) - P300 - Es wurden alle Pakete aus der Liste 'Empfangene Pakete' gelöscht
Sat Jan 11 2020 21:25:57 GMT+0100 (CET) - P300 - Es wurden alle Pakete aus der Liste 'Empfangene Pakete' gelöscht
Sat Jan 11 2020 21:27:44 GMT+0100 (CET) - P300 - Es wurden alle Pakete aus der Liste 'Empfangene Pakete' gelöscht
Sat Jan 11 2020 21:27:46 GMT+0100 (CET) - P300 - Es wurden alle Pakete aus der Liste 'Empfangene Pakete' gelöscht
Sat Jan 11 2020 21:27:46 GMT+0100 (CET) - P300 - Es wurden alle Pakete aus der Liste 'Empfangene Pakete' gelöscht
Sat Jan 11 2020 21:27:46 GMT+0100 (CET) - P300 - Es wurden alle Pakete aus der Liste 'Empfangene Pakete' gelöscht
Sat Jan 11 2020 21:27:46 GMT+0100 (CET) - P300 - Es wurden alle Pakete aus der Liste 'Empfangene Pakete' gelöscht
Sat Jan 11 2020 21:27:46 GMT+0100 (CET) - P300 - Es wurden alle Pakete aus der Liste 'Empfangene Pakete' gelöscht
Sat Jan 11 2020 21:27:47 GMT+0100 (CET) - P300 - Es wurden alle Pakete aus der Liste 'Empfangene Pakete' gelöscht
Sat Jan 11 2020 21:28:15 GMT+0100 (CET) - P300 - Es wurden alle Pakete aus der Liste 'Empfangene Pakete' gelöscht
Sat Jan 11 2020 21:29:01 GMT+0100 (CET) - P300 - Es wurden alle Pakete aus der Liste 'Empfangene Pakete' gelöscht
Sat Jan 11 2020 21:29:20 GMT+0100 (CET) - P300 - Es wurden alle Pakete aus der Liste 'Empfangene Pakete' gelöscht
Sat Jan 11 2020 21:29:55 GMT+0100 (CET) - P300 - Es wurden alle Pakete aus der Liste 'Empfangene Pakete' gelöscht
Sat Jan 11 2020 21:31:38 GMT+0100 (CET) - P100 - Es wurde eine Paket zum Empfangen eingetragen
Sat Jan 11 2020 21:31:50 GMT+0100 (CET) - B800 - Der Starttaster wurde gedrückt
Sat Jan 11 2020 21:31:50 GMT+0100 (CET) - F100 - Es wurde ein Paket mit nicht zustellbaren Paketnummer gescannt
Sat Jan 11 2020 21:32:42 GMT+0100 (CET) - F900 - Die Fehler wurden durch den Button auf der Weboberfläche quittiert
Sat Jan 11 2020 21:32:53 GMT+0100 (CET) - F200 - Es wurde die Fehlertaste an der Paketbox gedrückt
Sat Jan 11 2020 21:32:54 GMT+0100 (CET) - F900 - Die Fehler wurden durch den Button auf der Weboberfläche quittiert
Sat Jan 11 2020 21:33:00 GMT+0100 (CET) - B800 - Der Starttaster wurde gedrückt
Sat Jan 11 2020 21:33:00 GMT+0100 (CET) - F100 - Es wurde ein Paket mit nicht zustellbaren Paketnummer gescannt
Sat Jan 11 2020 21:34:16 GMT+0100 (CET) - B800 - Der Starttaster wurde gedrückt
Sat Jan 11 2020 21:34:16 GMT+0100 (CET) - P200 - Ein Paket wurde in die Paketbox gelegt
Sat Jan 11 2020 21:34:16 GMT+0100 (CET) - F900 - Die Fehler wurden durch den Button auf der Weboberfläche quittiert
Sat Jan 11 2020 21:34:16 GMT+0100 (CET) - P600 - Es wurde ein Paket aus der Liste 'Aktuelle Pakete' gelöscht
Sat Jan 11 2020 21:34:47 GMT+0100 (CET) - P300 - Es wurden alle Pakete aus der Liste 'Empfangene Pakete' gelöscht